09_analysis_5
…
pca_non_stim <- df_aug |>
  filter(Stimulated == 0) |>
  select(ends_with("_N")) |>
  prcomp(center = TRUE,
         scale = TRUE)

rot_mat_non_stim <- pca_non_stim |>
  tidy(matrix = "rotation")

rot_mat_non_stim |>
  filter(PC == 2) |>
  arrange(desc(value))

# A tibble: 77 × 3
   column        PC value
   <chr>      <dbl> <dbl>
 1 P70S6_N        2 0.207
 2 NUMB_N         2 0.193
 3 nNOS_N         2 0.186
 4 ERK_N          2 0.165
 5 ELK_N          2 0.155
 6 Bcatenin_N     2 0.147
 7 NR2A_N         2 0.122
 8 BAX_N          2 0.118
 9 PSD95_N        2 0.112
10 S6_N           2 0.109
# ℹ 67 more rows

pca_stim <- df_aug |>
  filter(Stimulated == 1) |>
  select(ends_with("_N")) |>
  prcomp(center = TRUE,
         scale = TRUE)

rot_mat_stim <- pca_stim |>
  tidy(matrix = "rotation")

rot_mat_stim |>
  filter(PC == 2) |>
  arrange(desc(value))

# A tibble: 77 × 3
   column             PC value
   <chr>           <dbl> <dbl>
 1 PSD95_N             2 0.172
 2 CaNA_N              2 0.168
 3 GluR3_N             2 0.167
 4 P70S6_N             2 0.163
 5 NUMB_N              2 0.160
 6 GluR4_N             2 0.156
 7 pGSK3B_Tyr216_N     2 0.151
 8 nNOS_N              2 0.140
 9 pCASP9_N            2 0.138
10 BAX_N               2 0.110
# ℹ 67 more rows
…
